%YAML 1.1
%TAG !u! tag:unity3d.com,2011:
--- !u!1045 &1
EditorBuildSettings:
  m_ObjectHideFlags: 0
  serializedVersion: 2
  m_Scenes:
  - enabled: 1
    path: Assets/_cm3d21.unity
    guid: de291b0a050bbb8846757f9fabc9cf7b
  - enabled: 1
    path: Assets/Scene/SceneCharacterSelect.unity
    guid: b5034504da7d2c9e4c4435a3af1d4adb
  - enabled: 1
    path: Assets/Scene/SceneCompetitiveShow.unity
    guid: bc30a66219d11ead47ed193e114b789d
  - enabled: 1
    path: Assets/Scene/SceneDaily.unity
    guid: beac5ad48d48a783491c2944a777dad1
  - enabled: 1
    path: Assets/Scene/SceneDance_DDFL_Release.unity
    guid: 05ef5dd1d5353d8b45790fb290c478e9
  - enabled: 1
    path: Assets/Scene/SceneEdit.unity
    guid: 54063f6863b0e9a643b0ebca41308acb
  - enabled: 1
    path: Assets/Scene/SceneLogo.unity
    guid: c0002c5ab029538145d3390a1cfc0b4e
  - enabled: 1
    path: Assets/Scene/SceneMaidManagement.unity
    guid: 70c80ab844d04aad41fccaa2a65b4a8b
  - enabled: 1
    path: Assets/Scene/SceneShop.unity
    guid: b2738415e28a228d4247fed25470531e
  - enabled: 1
    path: Assets/Scene/SceneTitle.unity
    guid: 6b2542eeeb7bd1a3402db4a94495adf2
  - enabled: 1
    path: Assets/Scene/SceneTrophy.unity
    guid: a4595583d0dc2a874c182a3848db9393
  - enabled: 1
    path: Assets/Scene/SceneTryInfo.unity
    guid: c57e8ae82bef3db64b1301e445148f49
  - enabled: 1
    path: Assets/Scene/SceneUserEdit.unity
    guid: 7d53e91cced6fbad44bf48c66d21bfac
  - enabled: 1
    path: Assets/Scene/SceneWarning.unity
    guid: ef3a83879ff18ba842822a288353969b
  - enabled: 1
    path: Assets/Scene/SceneYotogi.unity
    guid: b342e6926ca43c814c68acf150e3d939
  - enabled: 1
    path: Assets/Scene/SceneADV.unity
    guid: 97afbf3b8c90a69848b3e80d60355034
  - enabled: 1
    path: Assets/Scene/SceneStartDaily.unity
    guid: 65c901da6d7207be4117b8b6cb9b50e6
  - enabled: 1
    path: Assets/Scene/SceneToTitle.unity
    guid: 595e056db57b0d8f419a93505a27236b
  - enabled: 1
    path: Assets/Scene/SceneSingleEffect.unity
    guid: eaff4d0e671e288d4d750b0ee1f22de9
  - enabled: 1
    path: Assets/Scene/SceneStaffRoll.unity
    guid: 61060d420310adac40eaaa09e6d54bf3
  - enabled: 1
    path: Assets/Scene/SceneDance_ETYL_Release.unity
    guid: e4441dcb7be3a5b3404c656e1d45b272
  - enabled: 1
    path: Assets/Scene/SceneDanceSelect.unity
    guid: eba890be6dd6718e4dc1fbcd104fdc94
  - enabled: 1
    path: Assets/Scene/SceneDance_SCL_Release.unity
    guid: e0af3b390ae3ec8e4c0f1012f7c69fb3
  - enabled: 1
    path: Assets/Scene/SceneDeskCustomize.unity
    guid: 227abba10c0ed1a54ea37baaeea34c0b
  - enabled: 1
    path: Assets/Scene/SceneFreeModeSelect.unity
    guid: 664c5964a875f39045ef7280938bf150
  - enabled: 1
    path: Assets/Scene/SceneMaidBattle.unity
    guid: 7b9a6b45df6ece894a7ede355ec1d8b9
  - enabled: 1
    path: Assets/Scene/ScenePhotoMode.unity
    guid: 53bede9bc8188da747f5339a2791371d
  - enabled: 1
    path: Assets/Scene/SceneDance_RTY_Release.unity
    guid: d10dafa16ce874a34c15f3b00236e8f5
  - enabled: 1
    path: Assets/Scene/SceneEmpireLeague.unity
    guid: 9656eddf687ffbb946b4c66ae6b621ea
  - enabled: 1
    path: Assets/Scene/SceneDance_KNT_Release.unity
    guid: 789efd206ed27096443a29f3671ef6f9
  - enabled: 1
    path: Assets/Scene/SceneVRTouch.unity
    guid: 3fa4afc3cd938db34653cade80214394
  - enabled: 1
    path: Assets/Scene/SceneDance_SSNK_Release.unity
    guid: ca46ce46ef4c109a441bb19a1c64b673
  - enabled: 1
    path: Assets/Scene/AddSceneVRMiniGameAirPlane.unity
    guid: 208be8425452da834e14ab2c5a04ca23
  - enabled: 1
    path: Assets/Scene/AddSceneVRMiniGameDarts.unity
    guid: ed20ebde7a6cf4ac47a3081b453325fa
  - enabled: 1
    path: Assets/Scene/AddSceneVRMiniGameWanage.unity
    guid: 681289fa76ca5aab4aadb87cfb617a40
  - enabled: 1
    path: Assets/Scene/AddSceneVRMediaPlay.unity
    guid: e9972045670a61ae4cf33b0b8f1df30a
  - enabled: 1
    path: Assets/Scene/SceneVRCommunication.unity
    guid: 17f19f5c25c1daa24f9bb287af5bd9ca
  - enabled: 1
    path: Assets/Scene/SceneDance_NMF_Release.unity
    guid: e3f3d900ad9db4a34683a9bb95826b76
  - enabled: 1
    path: Assets/Scene/SceneDance_BLD_Release.unity
    guid: d7f13162cccc118743560777d2a7a928
  - enabled: 1
    path: Assets/Scene/SceneDance_KAD_Release.unity
    guid: 3a7b17d7e7f4e9824db360201f52ce2a
  - enabled: 1
    path: Assets/Scene/SceneFacilityManagement.unity
    guid: c91aab58b8ffb38a4e268053213a37ad
  - enabled: 1
    path: Assets/Scene/SceneFacilityPowerUp.unity
    guid: fa6a7b769a3384ac4f116ec440807303
  - enabled: 1
    path: Assets/Scene/SceneScenarioSelect.unity
    guid: dece30da707245a749c0f62eb7fc731e
  - enabled: 1
    path: Assets/Scene/SceneDance_BLDT_Release.unity
    guid: 850bf1e495bf5e88473d5d904fd6ac74
  - enabled: 1
    path: Assets/Scene/SceneDance_KADT_Release.unity
    guid: 4f5368e87b3290a54e43d22678f10ed5
  - enabled: 1
    path: Assets/Scene/SceneDance_NMFT_Release.unity
    guid: e0fc6047c86e578941e1450a5b79922f
  - enabled: 1
    path: Assets/Scene/SceneBenchMarkSetting.unity
    guid: 67c85fbb90c696ac4d8537769cf248b4
  - enabled: 1
    path: Assets/Scene/SceneCasino.unity
    guid: 0f4a41f2a002a0a94e9a23ceb97876eb
  - enabled: 1
    path: Assets/Scene/SceneBlackJack.unity
    guid: 5e75ad13ddeb8d964e34a7e4e0f14d50
  - enabled: 1
    path: Assets/Scene/SceneCasinoSlot.unity
    guid: 38adddb3b584ab9b4df86750faa60d67
  - enabled: 1
    path: Assets/Scene/SceneDance_LUM_Release.unity
    guid: 60f831d27ffb86b84f68946d174213fc
  - enabled: 1
    path: Assets/Scene/SceneCasinoShop.unity
    guid: 0f60a147e5ba4cae4dbb036277b6f10e
  - enabled: 1
    path: Assets/Scene/SceneCreativeRoom.unity
    guid: f9f38fe7fc7224a545b5e7d812031174
  - enabled: 1
    path: Assets/Scene/SceneKasizukiMainMenu.unity
    guid: 7893c4ae6848d8a649c1ea5d0c53dd5a
  - enabled: 1
    path: Assets/Scene/SceneNetorareCheck.unity
    guid: f71d612602baa195466d0dc02f363c95
  - enabled: 1
    path: Assets/Scene/SceneDance_MOE_Release.unity
    guid: d96c3652275d8f9d4d2bae0cbfff21ea
  - enabled: 1
    path: Assets/Scene/SceneDance_SCLT_Release.unity
    guid: 759ecf0fe06cc3b44addf38e3d0d8f39
  - enabled: 1
    path: Assets/Scene/SceneDance_KNTT_Release.unity
    guid: 221262ad5db5fda74ef134ced23f61cc
  - enabled: 1
    path: Assets/Scene/SceneDance_MOE2_Release.unity
    guid: 02bdfa1a89ed33be4515589c884d89cd
  - enabled: 1
    path: Assets/Scene/SceneDance_DDFLT_Release.unity
    guid: 50ed6af2d3415f80458b1e3bb88d4aa4
  - enabled: 1
    path: Assets/Scene/SceneDance_RTYT_Release.unity
    guid: 16a8c631fd5349b4482e8209283ffb43
  - enabled: 1
    path: Assets/Scene/SceneDance_MOET_Release.unity
    guid: 1357cd579416929b415626275ec8b244
  - enabled: 1
    path: Assets/Scene/SceneDance_LUMT_Release.unity
    guid: 18455a12ec81819640bc8408577b7fbf
  - enabled: 1
    path: Assets/Scene/SceneYotogiOld.unity
    guid: 5cfa5d5a6cee35b848e8ece44d63ab17
  - enabled: 1
    path: Assets/Scene/SceneDance_ETY21T_Release.unity
    guid: 998925ad41070aad43d61ab4d9d47546
  - enabled: 1
    path: Assets/Scene/SceneDance_CKTCK_Release.unity
    guid: 359d00d72529f28a4017ef97e4677578
  - enabled: 1
    path: Assets/Scene/SceneDance_DDFLK_Release.unity
    guid: ac70ad69e3f31d9a44ee6d1a84a9dedb
  - enabled: 1
    path: Assets/Scene/SceneDance_HHSK_Release.unity
    guid: 2ef029a2f412e79f414a67d713882790
  - enabled: 1
    path: Assets/Scene/SceneDance_RTYK_Release.unity
    guid: 7b6f103aa49889a24e8711bbb2dc844a
  - enabled: 1
    path: Assets/Scene/SceneDance_SCLK_Release.unity
    guid: f7ed61a9a55b53874e7bd3f9226dc0f9
  - enabled: 1
    path: Assets/Scene/SceneDance_SMTK_Release.unity
    guid: 440a9277497c48b6476bf4d3e3fd7123
  - enabled: 1
    path: Assets/Scene/SceneDance_SUH_Release.unity
    guid: 6babb62c1b1298be46e59aa3deb08564
  - enabled: 1
    path: Assets/Scene/SceneDance_SUHT_Release.unity
    guid: 47f094e72bf575bc4604ed1d0bdd8b7b
  - enabled: 1
    path: Assets/Scene/SceneDance_BLDK_Release.unity
    guid: 63b4b1e5d12df9bb473469b836572c39
  - enabled: 1
    path: Assets/Scene/SceneDance_KADK_Release.unity
    guid: 25ceb3a6c5a45b9048dc5d6a7ee2c7fe
  - enabled: 1
    path: Assets/Scene/SceneDance_NMFK_Release.unity
    guid: b5645ded950f2eb641b65aceb1a7e817
  - enabled: 1
    path: Assets/Scene/SceneDance_MAP_Release.unity
    guid: d9c31f9bddb6f28a4e41bbcb3d014ee0
  - enabled: 1
    path: Assets/Scene/SceneDance_MAPT_Release.unity
    guid: 6b1d17cdad9729b84156c77fc72c7ed9
  - enabled: 1
    path: Assets/Scene/SceneDance_LUM_K_Release.unity
    guid: b3e0f23ac5a419944e7170440f6784a3
  - enabled: 1
    path: Assets/Scene/SceneDance_SUHK_Release.unity
    guid: f4bcb14e3bfef1a242fc2600cead48db
  - enabled: 1
    path: Assets/Scene/SceneDance_MOEK_Release.unity
    guid: 7bd4e999bcc4faa44e91ca689931ba73
  - enabled: 1
    path: Assets/Scene/SceneEmpireLifeMode.unity
    guid: 58cd02cad914299d4c6d8060e9894bd9
  - enabled: 1
    path: Assets/Scene/SceneDance_SDB_Release.unity
    guid: 7f5d9e35696df8b74e9587849e391f8c
  - enabled: 1
    path: Assets/Scene/SceneDance_SDBT_Release.unity
    guid: d44b5966decd699c433667ddceec1428
  - enabled: 1
    path: Assets/Scene/SceneDance_FUA_P_Release.unity
    guid: 7a314ef2c1ccdea047cc0da665b68dd8
